[gd_scene load_steps=6 format=2]

[ext_resource path="res://src/Actors/Ship.gd" type="Script" id=1]
[ext_resource path="res://assets/Ship1.png" type="Texture" id=2]
[ext_resource path="res://assets/ThrusterFlame.png" type="Texture" id=3]
[ext_resource path="res://assets/Explosion.png" type="Texture" id=4]

[sub_resource type="Animation" id=1]
resource_name = "explosion"
length = 0.22
step = 0.05
tracks/0/type = "value"
tracks/0/path = NodePath(".:frame")
tracks/0/interp = 1
tracks/0/loop_wrap = true
tracks/0/imported = false
tracks/0/enabled = true
tracks/0/keys = {
"times": PoolRealArray( 0, 0.05, 0.1, 0.15 ),
"transitions": PoolRealArray( 1, 1, 1, 1 ),
"update": 1,
"values": [ 0, 1, 2, 3 ]
}

[node name="ActiveShip" type="RigidBody2D" groups=[
"player",
]]
contacts_reported = 1
contact_monitor = true
can_sleep = false
script = ExtResource( 1 )
spin_power = 50

[node name="ThrusterFlame" type="Sprite" parent="."]
position = Vector2( -9.48943, 0.263366 )
rotation = 1.47655
scale = Vector2( 0.012, 0.012 )
texture = ExtResource( 3 )

[node name="Sprite" type="Sprite" parent="."]
position = Vector2( 1.43358, -0.748304 )
rotation = 0.872665
scale = Vector2( 0.007, 0.007 )
texture = ExtResource( 2 )

[node name="CollisionShape2D" type="CollisionPolygon2D" parent="."]
position = Vector2( 1.19209e-07, 0 )
rotation = -2.98023e-08
polygon = PoolVector2Array( 9.04434, -0.235848, 6.37712, -1.74683, 2.34344, -2.46948, -3.2275, -3.83594, -2.45229, 3.45621, 2.29089, 1.66931, 6.81071, 0.959802 )
__meta__ = {
"_edit_lock_": true
}

[node name="Explosion" type="Sprite" parent="."]
scale = Vector2( 0.3, 0.3 )
texture = ExtResource( 4 )
hframes = 4

[node name="AnimationPlayer" type="AnimationPlayer" parent="Explosion"]
anims/explosion = SubResource( 1 )
[connection signal="body_entered" from="." to="." method="_on_ActiveShip_body_entered"]
[connection signal="animation_finished" from="Explosion/AnimationPlayer" to="." method="_on_AnimationPlayer_animation_finished"]
