[gd_scene load_steps=5 format=2]

[ext_resource path="res://src/Maps/Map.tscn" type="PackedScene" id=1]
[ext_resource path="res://src/Objects/Sun.tscn" type="PackedScene" id=2]
[ext_resource path="res://src/Objects/Planet4.tscn" type="PackedScene" id=3]
[ext_resource path="res://src/Objects/Planet5.tscn" type="PackedScene" id=4]

[node name="Map3" instance=ExtResource( 1 )]

[node name="Sun" parent="AstralBodies" index="0" instance=ExtResource( 2 )]
position = Vector2( 534.809, 438.947 )

[node name="Planet" parent="AstralBodies" index="1" groups=[
"start",
"target",
] instance=ExtResource( 3 )]
position = Vector2( 887.144, 435.583 )

[node name="Planet2" parent="AstralBodies" index="2" groups=[
"start",
"target",
] instance=ExtResource( 4 )]
position = Vector2( 153.884, 421.288 )
